<svg width="42" height="45" viewBox="0 0 42 45" fill="none" xmlns="http://www.w3.org/2000/svg">
<path d="M30.2054 24.8954C30.2054 24.8954 34.4246 23.4802 36.178 20.7587C37.9315 18.0372 38.0411 14.4448 38.0411 14.4448C38.0411 14.4448 40.9452 11.8321 40.5068 9.70933C40.0137 7.58655 36.6164 6.87895 36.6164 6.87895C36.6164 6.87895 34.863 4.91946 33.6027 3.99414" stroke="#23AB96" stroke-width="1.64384" stroke-linecap="round" stroke-linejoin="round"/>
<path d="M28.6165 1.87099C28.6165 1.87099 24.0137 0.891243 19.137 1.87099C14.2603 2.85074 14.6987 3.55833 14.6987 3.55833" stroke="#23AB96" stroke-width="1.64384" stroke-linecap="round" stroke-linejoin="round"/>
<path fill-rule="evenodd" clip-rule="evenodd" d="M28.1325 29.7389C28.5804 27.7614 23.1918 24.8556 16.0967 23.2486C9.00159 21.6416 2.88679 21.942 2.43891 23.9194C1.99102 25.8969 7.37964 28.8027 14.4747 30.4097C21.5698 32.0167 27.6846 31.7164 28.1325 29.7389Z" stroke="#23AB96" stroke-width="1.64384" stroke-linecap="round" stroke-linejoin="round"/>
<path d="M14.7535 3.50391C13.1096 4.70137 15.2466 10.4166 19.5206 16.295C23.7946 22.1735 28.5617 26.0381 30.2055 24.8406" stroke="#23AB96" stroke-width="1.64384" stroke-linecap="round" stroke-linejoin="round"/>
<path d="M28.2329 29.7388C28.2329 29.7388 25.8219 38.4477 20.8356 40.6249C15.8493 42.8566 10.3151 42.3667 10.3151 42.3667C10.3151 42.3667 7.46577 44.3262 5.1644 43.1287C2.86303 41.9312 3.79453 38.1755 3.79453 38.1755C3.79453 38.1755 1.32878 34.9641 1.05481 30.9907C0.780835 27.0173 2.47947 23.8604 2.47947 23.8604" stroke="#23AB96" stroke-width="1.64384" stroke-linecap="round" stroke-linejoin="round"/>
<path d="M10.4795 8.62012L11.2466 14.2809" stroke="#23AB96" stroke-width="1.64384" stroke-linecap="round" stroke-linejoin="round"/>
<path d="M5.32874 13.3555L7.90408 15.2605" stroke="#23AB96" stroke-width="1.64384" stroke-linecap="round" stroke-linejoin="round"/>
<path d="M3.73975 18.7441L6.97262 18.5264" stroke="#23AB96" stroke-width="1.64384" stroke-linecap="round" stroke-linejoin="round"/>
</svg>
